
저희쪽에서 진행한다면,

1. 개발 사양
   . 기획서 참조
 
 2. 개발 범위
    . PC용 운영관리자 웹 
    . 사용자용 안드로이드 (테블릿 웹, 스마트폰 웹)->구글플레이등록안함 
    . 아마존 클라우드 서버
    
3. 개발 플랫폼
   . 리액트(반응형)
   . 파이썬, 플라스크,  MySQL
   . 푸쉬 구현시 파이어베이스 연동 
   
3. 개발 기간
    . 총 3개월 ( 구현 2.5개월(임시오픈가능한수준)  , 필드 테스트 : 0.5개월)
    . 1차 오픈(기본 기능) : 11/1
    . 2차 업데이트 : 11/15
    . 3차 업데이트 : 11/30
    
4. 개발비용
   . 4천
   



[ 영업 현황 ]

1. 세일즈

eCare21

플로리다 소재
직원 60+명
(개발자 30+명)

Dell, MS등과 함께 3년간 개발한 솔루션.

수십개의 디바이스와 인테그레이션 되어있으며
새로운 제품도 2주면 다 작동 시킬 수 있음

현재 병원들과 협업이 주된 비지니스 이며
입원실 환자가 퇴원을 원할경우 (병원비 때문에), 이 회사의 RPM을 교육시키고, 제품과 함께 퇴원.
퇴원 후 기기로 수치를 리포트 하며, 리포트는 간호사들이 관리
(혈압, 혈당, 심박, 등등)

CEO: Pete Stevenson
오늘 미팅을 통해 아바틴과  eCare21과의 협업 가능성 발굴
환자가 원격 입원을 할 경우, eCare21은 의사, 간호사의 역할, 아바딘은 간호조무사, 간병인의 역할을 맡아서 하나의 서비스로 통합해서 제공할 의사 있음.


다음 스텝:
우리측에서 원하는 것과
협업에 관한 큰 그림을 그려서 다음 미팅때 제출.

우리측: 아바딘을 eCare21의 UI로 이용. 아바딘 앱의 노출도 증가.

2. 마케팅
Marketerhire.com

마케팅 서비스가 아닌, 마케팅 전문가를 우리 니즈에 맞게 매칭해줌.
(No contract)
사람을 몇명 쓰건, 한 회사에 인보이싱

우리 회사 같은 경우 Growth Marketer를 추천 (CMO레벨)
시간당 $150-$175
미니멈 $1500/월

프로젝트당 차지가 아닌 시간당 차지
CMO를 파트타임으로 쓸 수 있는 시스템
각종  SNS 마케팅을 한번에 할 수 있는(경험이 있는) 사람으로 매칭

매칭 된 후 우리가 컨트롤 (원하는 방향 및 작업 디테일)

2달 후 우리랑 맞지 않는다 판단되면 재매칭.


안드로이드 버전 영업 전달
1. 국내 관제 서비스(긴급상황 콜센터)
2. 무선충전시 자동 실행
3. 메세지 서비스 종료 음성 멘트 및 스크립트 제거

추후
유선 충전 이벤트 연동
자동실행시 자동실행 여부에 대한. 문답으로 실행 기능추가
   
         
         .
         


