{'device_id': '2136-01-01-01', 'field1': '2021-07-08', 'field2': '09:42', 'field3': 'TP', 'field4': '30.0', 'field5': 'RH', 'field6': '49.51', 'field7': 'CO2', 'field8': '696', 'field9': 'PPF', 'field10': '133.0', 'field11': 'PSP', 'field12': '0', 'field13': 'UV', 'field14': '0', 'field15': 'ST', 'field16': '26.78', 'field17': 'EC', 'field18': '0.00', 'field19': 'SM', 'field20': '0.00'}
{'device_id': '2136-01-01-01', 'field1': '2021-08-01', 'field2': '09:00', 'field3': 'TP', 'field4': '3', 'field5': 'RH', 'field6': '3', 'field7': 'CO2', 'field8': '3', 'field9': 'PPF', 'field10': '0.0', 'field11': 'PSP', 'field12': '0', 'field13': 'UV', 'field14': '0', 'field15': 'ST', 'field16': '32.71', 'field17': 'EC', 'field18': '0.74', 'field19': 'SM', 'field20': '22.49'}
{'device_id': '2136-01-01-01', 'field1': '2021-08-01', 'field2': '09:10', 'field3': 'TP', 'field4': '17', 'field5': 'RH', 'field6': '3', 'field7': 'CO2', 'field8': '3', 'field9': 'PPF', 'field10': '0.0', 'field11': 'PSP', 'field12': '0', 'field13': 'UV', 'field14': '0', 'field15': 'ST', 'field16': '32.71', 'field17': 'EC', 'field18': '0.74', 'field19': 'SM', 'field20': '22.49'}
{'device_id': '2136-01-01-01', 'field1': '2021-08-17', 'field2': '09:42', 'field3': 'TP', 'field4': '5', 'field5': 'RH', 'field6': '49.51', 'field7': 'CO2', 'field8': '696', 'field9': 'PPF', 'field10': '133.0', 'field11': 'PSP', 'field12': '0', 'field13': 'UV', 'field14': '0', 'field15': 'ST', 'field16': '26.78', 'field17': 'EC', 'field18': '0.00', 'field19': 'SM', 'field20': '0.00'}
{'device_id': '2136-01-01-01', 'field1': '2021-08-23', 'field2': '09:42', 'field3': 'TP', 'field4': '5', 'field5': 'RH', 'field6': '49.51', 'field7': 'CO2', 'field8': '696', 'field9': 'PPF', 'field10': '133.0', 'field11': 'PSP', 'field12': '0', 'field13': 'UV', 'field14': '0', 'field15': 'ST', 'field16': '26.78', 'field17': 'EC', 'field18': '0.00', 'field19': 'SM', 'field20': '0.00'}
{'device_id': '2136-01-01-01', 'field1': '2021-08-23', 'field2': '09:50', 'field3': 'TP', 'field4': '5', 'field5': 'RH', 'field6': '49.51', 'field7': 'CO2', 'field8': '696', 'field9': 'PPF', 'field10': '133.0', 'field11': 'PSP', 'field12': '0', 'field13': 'UV', 'field14': '0', 'field15': 'ST', 'field16': '26.78', 'field17': 'EC', 'field18': '0.00', 'field19': 'SM', 'field20': '0.00'}
