{'device_id': '2136-01-01-03', 'field1': '2021-07-11', 'field2': '10:08', 'field3': 'TP', 'field4': '32.5', 'field5': 'RH', 'field6': '52.67', 'field7': 'CO2', 'field8': '403', 'field9': 'PPF', 'field10': '858.0', 'field11': 'PSP', 'field12': '0', 'field13': 'UV', 'field14': '0', 'field15': 'ST', 'field16': '29.28', 'field17': 'EC', 'field18': '0.00', 'field19': 'SM', 'field20': '0.00'}
{'device_id': '2136-01-01-03', 'field1': '2021-07-11', 'field2': '10:09', 'field3': 'TP', 'field4': '32.4', 'field5': 'RH', 'field6': '52.79', 'field7': 'CO2', 'field8': '400', 'field9': 'PPF', 'field10': '876.0', 'field11': 'PSP', 'field12': '0', 'field13': 'UV', 'field14': '0', 'field15': 'ST', 'field16': '29.28', 'field17': 'EC', 'field18': '0.00', 'field19': 'SM', 'field20': '0.00'}
{'device_id': '2136-01-01-03', 'field1': '2021-07-11', 'field2': '10:09', 'field3': 'TP', 'field4': '32.4', 'field5': 'RH', 'field6': '52.77', 'field7': 'CO2', 'field8': '399', 'field9': 'PPF', 'field10': '861.0', 'field11': 'PSP', 'field12': '0', 'field13': 'UV', 'field14': '0', 'field15': 'ST', 'field16': '29.33', 'field17': 'EC', 'field18': '0.00', 'field19': 'SM', 'field20': '0.00'}
{'device_id': '2136-01-01-03', 'field1': '2021-07-11', 'field2': '10:12', 'field3': 'TP', 'field4': '32.5', 'field5': 'RH', 'field6': '52.80', 'field7': 'CO2', 'field8': '395', 'field9': 'PPF', 'field10': '850.0', 'field11': 'PSP', 'field12': '0', 'field13': 'UV', 'field14': '0', 'field15': 'ST', 'field16': '29.33', 'field17': 'EC', 'field18': '0.00', 'field19': 'SM', 'field20': '0.00'}
{'device_id': '2136-01-01-03', 'field1': '2021-07-11', 'field2': '10:13', 'field3': 'TP', 'field4': '32.4', 'field5': 'RH', 'field6': '53.75', 'field7': 'CO2', 'field8': '411', 'field9': 'PPF', 'field10': '864.0', 'field11': 'PSP', 'field12': '0', 'field13': 'UV', 'field14': '0', 'field15': 'ST', 'field16': '29.30', 'field17': 'EC', 'field18': '0.00', 'field19': 'SM', 'field20': '0.00'}
{'device_id': '2136-01-01-03', 'field1': '2021-07-11', 'field2': '10:14', 'field3': 'TP', 'field4': '32.4', 'field5': 'RH', 'field6': '53.06', 'field7': 'CO2', 'field8': '411', 'field9': 'PPF', 'field10': '858.0', 'field11': 'PSP', 'field12': '0', 'field13': 'UV', 'field14': '0', 'field15': 'ST', 'field16': '29.30', 'field17': 'EC', 'field18': '0.00', 'field19': 'SM', 'field20': '0.00'}
{'device_id': '2136-01-01-03', 'field1': '2021-07-11', 'field2': '10:14', 'field3': 'TP', 'field4': '32.4', 'field5': 'RH', 'field6': '53.09', 'field7': 'CO2', 'field8': '405', 'field9': 'PPF', 'field10': '872.0', 'field11': 'PSP', 'field12': '0', 'field13': 'UV', 'field14': '0', 'field15': 'ST', 'field16': '29.33', 'field17': 'EC', 'field18': '0.00', 'field19': 'SM', 'field20': '0.00'}
{'device_id': '2136-01-01-03', 'field1': '2021-07-11', 'field2': '10:15', 'field3': 'TP', 'field4': '32.4', 'field5': 'RH', 'field6': '53.11', 'field7': 'CO2', 'field8': '418', 'field9': 'PPF', 'field10': '857.0', 'field11': 'PSP', 'field12': '0', 'field13': 'UV', 'field14': '0', 'field15': 'ST', 'field16': '29.33', 'field17': 'EC', 'field18': '0.00', 'field19': 'SM', 'field20': '0.00'}
{'device_id': '2136-01-01-03', 'field1': '2021-07-12', 'field2': '08:24', 'field3': 'TP', 'field4': '28.9', 'field5': 'RH', 'field6': '46.59', 'field7': 'CO2', 'field8': '943', 'field9': 'PPF', 'field10': '559.0', 'field11': 'PSP', 'field12': '0', 'field13': 'UV', 'field14': '0', 'field15': 'ST', 'field16': '0.00', 'field17': 'EC', 'field18': '0.00', 'field19': 'SM', 'field20': '0.00'}
{'device_id': '2136-01-01-03', 'field1': '2021-07-12', 'field2': '08:25', 'field3': 'TP', 'field4': '29.1', 'field5': 'RH', 'field6': '45.62', 'field7': 'CO2', 'field8': '826', 'field9': 'PPF', 'field10': '575.0', 'field11': 'PSP', 'field12': '0', 'field13': 'UV', 'field14': '0', 'field15': 'ST', 'field16': '0.00', 'field17': 'EC', 'field18': '0.00', 'field19': 'SM', 'field20': '0.00'}
{'device_id': '2136-01-01-03', 'field1': '2021-07-12', 'field2': '08:27', 'field3': 'TP', 'field4': '29.3', 'field5': 'RH', 'field6': '45.29', 'field7': 'CO2', 'field8': '809', 'field9': 'PPF', 'field10': '559.0', 'field11': 'PSP', 'field12': '0', 'field13': 'UV', 'field14': '0', 'field15': 'ST', 'field16': '0.00', 'field17': 'EC', 'field18': '0.00', 'field19': 'SM', 'field20': '0.00'}
{'device_id': '2136-01-01-03', 'field1': '2021-07-12', 'field2': '08:33', 'field3': 'TP', 'field4': '29.9', 'field5': 'RH', 'field6': '43.31', 'field7': 'CO2', 'field8': '703', 'field9': 'PPF', 'field10': '586.0', 'field11': 'PSP', 'field12': '0', 'field13': 'UV', 'field14': '0', 'field15': 'ST', 'field16': '0.00', 'field17': 'EC', 'field18': '0.00', 'field19': 'SM', 'field20': '0.00'}
{'device_id': '2136-01-01-03', 'field1': '2021-07-12', 'field2': '08:38', 'field3': 'TP', 'field4': '29.3', 'field5': 'RH', 'field6': '44.28', 'field7': 'CO2', 'field8': '710', 'field9': 'PPF', 'field10': '583.0', 'field11': 'PSP', 'field12': '0', 'field13': 'UV', 'field14': '0', 'field15': 'ST', 'field16': '0.00', 'field17': 'EC', 'field18': '0.00', 'field19': 'SM', 'field20': '0.00'}
{'device_id': '2136-01-01-03', 'field1': '2021-07-12', 'field2': '08:43', 'field3': 'TP', 'field4': '29.6', 'field5': 'RH', 'field6': '43.93', 'field7': 'CO2', 'field8': '794', 'field9': 'PPF', 'field10': '590.0', 'field11': 'PSP', 'field12': '0', 'field13': 'UV', 'field14': '0', 'field15': 'ST', 'field16': '0.00', 'field17': 'EC', 'field18': '0.00', 'field19': 'SM', 'field20': '0.00'}
{'device_id': '2136-01-01-03', 'field1': '2021-07-12', 'field2': '08:59', 'field3': 'TP', 'field4': '30.1', 'field5': 'RH', 'field6': '42.27', 'field7': 'CO2', 'field8': '912', 'field9': 'PPF', 'field10': '561.0', 'field11': 'PSP', 'field12': '0', 'field13': 'UV', 'field14': '0', 'field15': 'ST', 'field16': '0.00', 'field17': 'EC', 'field18': '0.00', 'field19': 'SM', 'field20': '0.00'}
{'device_id': '2136-01-01-03', 'field1': '2021-07-12', 'field2': '09:04', 'field3': 'TP', 'field4': '30.5', 'field5': 'RH', 'field6': '41.03', 'field7': 'CO2', 'field8': '818', 'field9': 'PPF', 'field10': '559.0', 'field11': 'PSP', 'field12': '0', 'field13': 'UV', 'field14': '0', 'field15': 'ST', 'field16': '0.00', 'field17': 'EC', 'field18': '0.00', 'field19': 'SM', 'field20': '0.00'}
{'device_id': '2136-01-01-03', 'field1': '2021-07-12', 'field2': '09:09', 'field3': 'TP', 'field4': '30.6', 'field5': 'RH', 'field6': '41.04', 'field7': 'CO2', 'field8': '881', 'field9': 'PPF', 'field10': '513.0', 'field11': 'PSP', 'field12': '0', 'field13': 'UV', 'field14': '0', 'field15': 'ST', 'field16': '0.00', 'field17': 'EC', 'field18': '0.00', 'field19': 'SM', 'field20': '0.00'}
{'device_id': '2136-01-01-03', 'field1': '2021-07-12', 'field2': '09:15', 'field3': 'TP', 'field4': '30.0', 'field5': 'RH', 'field6': '42.51', 'field7': 'CO2', 'field8': '1002', 'field9': 'PPF', 'field10': '513.0', 'field11': 'PSP', 'field12': '0', 'field13': 'UV', 'field14': '0', 'field15': 'ST', 'field16': '0.00', 'field17': 'EC', 'field18': '0.00', 'field19': 'SM', 'field20': '0.00'}
{'device_id': '2136-01-01-03', 'field1': '2021-07-12', 'field2': '09:20', 'field3': 'TP', 'field4': '30.6', 'field5': 'RH', 'field6': '40.72', 'field7': 'CO2', 'field8': '885', 'field9': 'PPF', 'field10': '518.0', 'field11': 'PSP', 'field12': '0', 'field13': 'UV', 'field14': '0', 'field15': 'ST', 'field16': '0.00', 'field17': 'EC', 'field18': '0.00', 'field19': 'SM', 'field20': '0.00'}
{'device_id': '2136-01-01-03', 'field1': '2021-07-12', 'field2': '09:25', 'field3': 'TP', 'field4': '30.2', 'field5': 'RH', 'field6': '42.37', 'field7': 'CO2', 'field8': '1659', 'field9': 'PPF', 'field10': '502.0', 'field11': 'PSP', 'field12': '0', 'field13': 'UV', 'field14': '0', 'field15': 'ST', 'field16': '0.00', 'field17': 'EC', 'field18': '0.00', 'field19': 'SM', 'field20': '0.00'}
{'device_id': '2136-01-01-03', 'field1': '2021-07-12', 'field2': '09:30', 'field3': 'TP', 'field4': '29.7', 'field5': 'RH', 'field6': '42.43', 'field7': 'CO2', 'field8': '1053', 'field9': 'PPF', 'field10': '478.0', 'field11': 'PSP', 'field12': '0', 'field13': 'UV', 'field14': '0', 'field15': 'ST', 'field16': '0.00', 'field17': 'EC', 'field18': '0.00', 'field19': 'SM', 'field20': '0.00'}
{'device_id': '2136-01-01-03', 'field1': '2021-07-12', 'field2': '09:36', 'field3': 'TP', 'field4': '29.2', 'field5': 'RH', 'field6': '43.37', 'field7': 'CO2', 'field8': '840', 'field9': 'PPF', 'field10': '515.0', 'field11': 'PSP', 'field12': '0', 'field13': 'UV', 'field14': '0', 'field15': 'ST', 'field16': '0.00', 'field17': 'EC', 'field18': '0.00', 'field19': 'SM', 'field20': '0.00'}
{'device_id': '2136-01-01-03', 'field1': '2021-07-12', 'field2': '09:41', 'field3': 'TP', 'field4': '29.2', 'field5': 'RH', 'field6': '44.00', 'field7': 'CO2', 'field8': '1078', 'field9': 'PPF', 'field10': '540.0', 'field11': 'PSP', 'field12': '0', 'field13': 'UV', 'field14': '0', 'field15': 'ST', 'field16': '0.00', 'field17': 'EC', 'field18': '0.00', 'field19': 'SM', 'field20': '0.00'}
{'device_id': '2136-01-01-03', 'field1': '2021-07-12', 'field2': '09:46', 'field3': 'TP', 'field4': '29.6', 'field5': 'RH', 'field6': '43.13', 'field7': 'CO2', 'field8': '984', 'field9': 'PPF', 'field10': '528.0', 'field11': 'PSP', 'field12': '0', 'field13': 'UV', 'field14': '0', 'field15': 'ST', 'field16': '0.00', 'field17': 'EC', 'field18': '0.00', 'field19': 'SM', 'field20': '0.00'}
{'device_id': '2136-01-01-03', 'field1': '2021-07-12', 'field2': '09:52', 'field3': 'TP', 'field4': '29.1', 'field5': 'RH', 'field6': '43.40', 'field7': 'CO2', 'field8': '1006', 'field9': 'PPF', 'field10': '383.0', 'field11': 'PSP', 'field12': '0', 'field13': 'UV', 'field14': '0', 'field15': 'ST', 'field16': '0.00', 'field17': 'EC', 'field18': '0.00', 'field19': 'SM', 'field20': '0.00'}
{'device_id': '2136-01-01-03', 'field1': '2021-07-12', 'field2': '09:58', 'field3': 'TP', 'field4': '29.0', 'field5': 'RH', 'field6': '43.58', 'field7': 'CO2', 'field8': '883', 'field9': 'PPF', 'field10': '633.0', 'field11': 'PSP', 'field12': '0', 'field13': 'UV', 'field14': '0', 'field15': 'ST', 'field16': '0.00', 'field17': 'EC', 'field18': '0.00', 'field19': 'SM', 'field20': '0.00'}
{'device_id': '2136-01-01-03', 'field1': '2021-07-12', 'field2': '10:03', 'field3': 'TP', 'field4': '29.1', 'field5': 'RH', 'field6': '43.23', 'field7': 'CO2', 'field8': '887', 'field9': 'PPF', 'field10': '639.0', 'field11': 'PSP', 'field12': '0', 'field13': 'UV', 'field14': '0', 'field15': 'ST', 'field16': '0.00', 'field17': 'EC', 'field18': '0.00', 'field19': 'SM', 'field20': '0.00'}
{'device_id': '2136-01-01-03', 'field1': '2021-07-12', 'field2': '10:08', 'field3': 'TP', 'field4': '28.9', 'field5': 'RH', 'field6': '43.97', 'field7': 'CO2', 'field8': '897', 'field9': 'PPF', 'field10': '648.0', 'field11': 'PSP', 'field12': '0', 'field13': 'UV', 'field14': '0', 'field15': 'ST', 'field16': '0.00', 'field17': 'EC', 'field18': '0.00', 'field19': 'SM', 'field20': '0.00'}
{'device_id': '2136-01-01-03', 'field1': '2021-07-12', 'field2': '10:13', 'field3': 'TP', 'field4': '29.7', 'field5': 'RH', 'field6': '42.00', 'field7': 'CO2', 'field8': '897', 'field9': 'PPF', 'field10': '650.0', 'field11': 'PSP', 'field12': '0', 'field13': 'UV', 'field14': '0', 'field15': 'ST', 'field16': '0.00', 'field17': 'EC', 'field18': '0.00', 'field19': 'SM', 'field20': '0.00'}
{'device_id': '2136-01-01-03', 'field1': '2021-07-12', 'field2': '10:19', 'field3': 'TP', 'field4': '28.9', 'field5': 'RH', 'field6': '44.43', 'field7': 'CO2', 'field8': '883', 'field9': 'PPF', 'field10': '648.0', 'field11': 'PSP', 'field12': '0', 'field13': 'UV', 'field14': '0', 'field15': 'ST', 'field16': '0.00', 'field17': 'EC', 'field18': '0.00', 'field19': 'SM', 'field20': '0.00'}
{'device_id': '2136-01-01-03', 'field1': '2021-07-12', 'field2': '10:24', 'field3': 'TP', 'field4': '29.0', 'field5': 'RH', 'field6': '44.05', 'field7': 'CO2', 'field8': '916', 'field9': 'PPF', 'field10': '500.0', 'field11': 'PSP', 'field12': '0', 'field13': 'UV', 'field14': '0', 'field15': 'ST', 'field16': '0.00', 'field17': 'EC', 'field18': '0.00', 'field19': 'SM', 'field20': '0.00'}
{'device_id': '2136-01-01-03', 'field1': '2021-07-12', 'field2': '10:29', 'field3': 'TP', 'field4': '28.6', 'field5': 'RH', 'field6': '44.62', 'field7': 'CO2', 'field8': '874', 'field9': 'PPF', 'field10': '684.0', 'field11': 'PSP', 'field12': '0', 'field13': 'UV', 'field14': '0', 'field15': 'ST', 'field16': '0.00', 'field17': 'EC', 'field18': '0.00', 'field19': 'SM', 'field20': '0.00'}
{'device_id': '2136-01-01-03', 'field1': '2021-07-12', 'field2': '10:34', 'field3': 'TP', 'field4': '28.2', 'field5': 'RH', 'field6': '45.06', 'field7': 'CO2', 'field8': '856', 'field9': 'PPF', 'field10': '675.0', 'field11': 'PSP', 'field12': '0', 'field13': 'UV', 'field14': '0', 'field15': 'ST', 'field16': '0.00', 'field17': 'EC', 'field18': '0.00', 'field19': 'SM', 'field20': '0.00'}
{'device_id': '2136-01-01-03', 'field1': '2021-07-12', 'field2': '10:39', 'field3': 'TP', 'field4': '29.1', 'field5': 'RH', 'field6': '45.53', 'field7': 'CO2', 'field8': '886', 'field9': 'PPF', 'field10': '688.0', 'field11': 'PSP', 'field12': '0', 'field13': 'UV', 'field14': '0', 'field15': 'ST', 'field16': '0.00', 'field17': 'EC', 'field18': '0.00', 'field19': 'SM', 'field20': '0.00'}
{'device_id': '2136-01-01-03', 'field1': '2021-07-12', 'field2': '10:45', 'field3': 'TP', 'field4': '29.0', 'field5': 'RH', 'field6': '44.70', 'field7': 'CO2', 'field8': '875', 'field9': 'PPF', 'field10': '676.0', 'field11': 'PSP', 'field12': '0', 'field13': 'UV', 'field14': '0', 'field15': 'ST', 'field16': '0.00', 'field17': 'EC', 'field18': '0.00', 'field19': 'SM', 'field20': '0.00'}
{'device_id': '2136-01-01-03', 'field1': '2021-07-12', 'field2': '10:50', 'field3': 'TP', 'field4': '28.4', 'field5': 'RH', 'field6': '45.12', 'field7': 'CO2', 'field8': '866', 'field9': 'PPF', 'field10': '640.0', 'field11': 'PSP', 'field12': '0', 'field13': 'UV', 'field14': '0', 'field15': 'ST', 'field16': '0.00', 'field17': 'EC', 'field18': '0.00', 'field19': 'SM', 'field20': '0.00'}
{'device_id': '2136-01-01-03', 'field1': '2021-07-12', 'field2': '10:55', 'field3': 'TP', 'field4': '29.9', 'field5': 'RH', 'field6': '44.77', 'field7': 'CO2', 'field8': '970', 'field9': 'PPF', 'field10': '638.0', 'field11': 'PSP', 'field12': '0', 'field13': 'UV', 'field14': '0', 'field15': 'ST', 'field16': '0.00', 'field17': 'EC', 'field18': '0.00', 'field19': 'SM', 'field20': '0.00'}
{'device_id': '2136-01-01-03', 'field1': '2021-07-12', 'field2': '11:00', 'field3': 'TP', 'field4': '30.0', 'field5': 'RH', 'field6': '44.03', 'field7': 'CO2', 'field8': '1002', 'field9': 'PPF', 'field10': '653.0', 'field11': 'PSP', 'field12': '0', 'field13': 'UV', 'field14': '0', 'field15': 'ST', 'field16': '0.00', 'field17': 'EC', 'field18': '0.00', 'field19': 'SM', 'field20': '0.00'}
{'device_id': '2136-01-01-03', 'field1': '2021-07-12', 'field2': '11:06', 'field3': 'TP', 'field4': '29.8', 'field5': 'RH', 'field6': '43.38', 'field7': 'CO2', 'field8': '1010', 'field9': 'PPF', 'field10': '647.0', 'field11': 'PSP', 'field12': '0', 'field13': 'UV', 'field14': '0', 'field15': 'ST', 'field16': '0.00', 'field17': 'EC', 'field18': '0.00', 'field19': 'SM', 'field20': '0.00'}
{'device_id': '2136-01-01-03', 'field1': '2021-07-12', 'field2': '11:11', 'field3': 'TP', 'field4': '30.4', 'field5': 'RH', 'field6': '41.13', 'field7': 'CO2', 'field8': '954', 'field9': 'PPF', 'field10': '638.0', 'field11': 'PSP', 'field12': '0', 'field13': 'UV', 'field14': '0', 'field15': 'ST', 'field16': '0.00', 'field17': 'EC', 'field18': '0.00', 'field19': 'SM', 'field20': '0.00'}
{'device_id': '2136-01-01-03', 'field1': '2021-07-12', 'field2': '11:16', 'field3': 'TP', 'field4': '30.4', 'field5': 'RH', 'field6': '42.08', 'field7': 'CO2', 'field8': '923', 'field9': 'PPF', 'field10': '660.0', 'field11': 'PSP', 'field12': '0', 'field13': 'UV', 'field14': '0', 'field15': 'ST', 'field16': '0.00', 'field17': 'EC', 'field18': '0.00', 'field19': 'SM', 'field20': '0.00'}
{'device_id': '2136-01-01-03', 'field1': '2021-07-12', 'field2': '11:21', 'field3': 'TP', 'field4': '30.7', 'field5': 'RH', 'field6': '42.39', 'field7': 'CO2', 'field8': '960', 'field9': 'PPF', 'field10': '659.0', 'field11': 'PSP', 'field12': '0', 'field13': 'UV', 'field14': '0', 'field15': 'ST', 'field16': '0.00', 'field17': 'EC', 'field18': '0.00', 'field19': 'SM', 'field20': '0.00'}
{'device_id': '2136-01-01-03', 'field1': '2021-07-12', 'field2': '11:27', 'field3': 'TP', 'field4': '29.7', 'field5': 'RH', 'field6': '43.50', 'field7': 'CO2', 'field8': '1041', 'field9': 'PPF', 'field10': '654.0', 'field11': 'PSP', 'field12': '0', 'field13': 'UV', 'field14': '0', 'field15': 'ST', 'field16': '0.00', 'field17': 'EC', 'field18': '0.00', 'field19': 'SM', 'field20': '0.00'}
{'device_id': '2136-01-01-03', 'field1': '2021-07-12', 'field2': '11:32', 'field3': 'TP', 'field4': '29.8', 'field5': 'RH', 'field6': '42.38', 'field7': 'CO2', 'field8': '1042', 'field9': 'PPF', 'field10': '653.0', 'field11': 'PSP', 'field12': '0', 'field13': 'UV', 'field14': '0', 'field15': 'ST', 'field16': '0.00', 'field17': 'EC', 'field18': '0.00', 'field19': 'SM', 'field20': '0.00'}
{'device_id': '2136-01-01-03', 'field1': '2021-07-12', 'field2': '11:37', 'field3': 'TP', 'field4': '29.2', 'field5': 'RH', 'field6': '46.43', 'field7': 'CO2', 'field8': '903', 'field9': 'PPF', 'field10': '680.0', 'field11': 'PSP', 'field12': '0', 'field13': 'UV', 'field14': '0', 'field15': 'ST', 'field16': '0.00', 'field17': 'EC', 'field18': '0.00', 'field19': 'SM', 'field20': '0.00'}
{'device_id': '2136-01-01-03', 'field1': '2021-07-12', 'field2': '11:42', 'field3': 'TP', 'field4': '29.0', 'field5': 'RH', 'field6': '45.23', 'field7': 'CO2', 'field8': '916', 'field9': 'PPF', 'field10': '669.0', 'field11': 'PSP', 'field12': '0', 'field13': 'UV', 'field14': '0', 'field15': 'ST', 'field16': '0.00', 'field17': 'EC', 'field18': '0.00', 'field19': 'SM', 'field20': '0.00'}
{'device_id': '2136-01-01-03', 'field1': '2021-07-12', 'field2': '11:48', 'field3': 'TP', 'field4': '29.9', 'field5': 'RH', 'field6': '42.61', 'field7': 'CO2', 'field8': '1015', 'field9': 'PPF', 'field10': '671.0', 'field11': 'PSP', 'field12': '0', 'field13': 'UV', 'field14': '0', 'field15': 'ST', 'field16': '0.00', 'field17': 'EC', 'field18': '0.00', 'field19': 'SM', 'field20': '0.00'}
{'device_id': '2136-01-01-03', 'field1': '2021-07-12', 'field2': '11:53', 'field3': 'TP', 'field4': '30.4', 'field5': 'RH', 'field6': '43.23', 'field7': 'CO2', 'field8': '919', 'field9': 'PPF', 'field10': '705.0', 'field11': 'PSP', 'field12': '0', 'field13': 'UV', 'field14': '0', 'field15': 'ST', 'field16': '0.00', 'field17': 'EC', 'field18': '0.00', 'field19': 'SM', 'field20': '0.00'}
{'device_id': '2136-01-01-03', 'field1': '2021-07-12', 'field2': '11:58', 'field3': 'TP', 'field4': '30.8', 'field5': 'RH', 'field6': '42.19', 'field7': 'CO2', 'field8': '931', 'field9': 'PPF', 'field10': '675.0', 'field11': 'PSP', 'field12': '0', 'field13': 'UV', 'field14': '0', 'field15': 'ST', 'field16': '0.00', 'field17': 'EC', 'field18': '0.00', 'field19': 'SM', 'field20': '0.00'}
{'device_id': '2136-01-01-03', 'field1': '2021-07-12', 'field2': '12:03', 'field3': 'TP', 'field4': '30.7', 'field5': 'RH', 'field6': '42.19', 'field7': 'CO2', 'field8': '955', 'field9': 'PPF', 'field10': '671.0', 'field11': 'PSP', 'field12': '0', 'field13': 'UV', 'field14': '0', 'field15': 'ST', 'field16': '0.00', 'field17': 'EC', 'field18': '0.00', 'field19': 'SM', 'field20': '0.00'}
{'device_id': '2136-01-01-03', 'field1': '2021-07-12', 'field2': '12:08', 'field3': 'TP', 'field4': '29.0', 'field5': 'RH', 'field6': '44.10', 'field7': 'CO2', 'field8': '913', 'field9': 'PPF', 'field10': '706.0', 'field11': 'PSP', 'field12': '0', 'field13': 'UV', 'field14': '0', 'field15': 'ST', 'field16': '0.00', 'field17': 'EC', 'field18': '0.00', 'field19': 'SM', 'field20': '0.00'}
{'device_id': '2136-01-01-03', 'field1': '2021-07-12', 'field2': '12:14', 'field3': 'TP', 'field4': '29.2', 'field5': 'RH', 'field6': '45.06', 'field7': 'CO2', 'field8': '887', 'field9': 'PPF', 'field10': '708.0', 'field11': 'PSP', 'field12': '0', 'field13': 'UV', 'field14': '0', 'field15': 'ST', 'field16': '0.00', 'field17': 'EC', 'field18': '0.00', 'field19': 'SM', 'field20': '0.00'}
{'device_id': '2136-01-01-03', 'field1': '2021-07-12', 'field2': '12:19', 'field3': 'TP', 'field4': '30.1', 'field5': 'RH', 'field6': '43.05', 'field7': 'CO2', 'field8': '859', 'field9': 'PPF', 'field10': '687.0', 'field11': 'PSP', 'field12': '0', 'field13': 'UV', 'field14': '0', 'field15': 'ST', 'field16': '0.00', 'field17': 'EC', 'field18': '0.00', 'field19': 'SM', 'field20': '0.00'}
{'device_id': '2136-01-01-03', 'field1': '2021-07-12', 'field2': '12:24', 'field3': 'TP', 'field4': '29.1', 'field5': 'RH', 'field6': '45.13', 'field7': 'CO2', 'field8': '847', 'field9': 'PPF', 'field10': '650.0', 'field11': 'PSP', 'field12': '0', 'field13': 'UV', 'field14': '0', 'field15': 'ST', 'field16': '0.00', 'field17': 'EC', 'field18': '0.00', 'field19': 'SM', 'field20': '0.00'}
{'device_id': '2136-01-01-03', 'field1': '2021-07-12', 'field2': '12:29', 'field3': 'TP', 'field4': '29.4', 'field5': 'RH', 'field6': '44.77', 'field7': 'CO2', 'field8': '856', 'field9': 'PPF', 'field10': '722.0', 'field11': 'PSP', 'field12': '0', 'field13': 'UV', 'field14': '0', 'field15': 'ST', 'field16': '0.00', 'field17': 'EC', 'field18': '0.00', 'field19': 'SM', 'field20': '0.00'}
{'device_id': '2136-01-01-03', 'field1': '2021-07-12', 'field2': '12:35', 'field3': 'TP', 'field4': '30.1', 'field5': 'RH', 'field6': '43.73', 'field7': 'CO2', 'field8': '849', 'field9': 'PPF', 'field10': '725.0', 'field11': 'PSP', 'field12': '0', 'field13': 'UV', 'field14': '0', 'field15': 'ST', 'field16': '0.00', 'field17': 'EC', 'field18': '0.00', 'field19': 'SM', 'field20': '0.00'}
{'device_id': '2136-01-01-03', 'field1': '2021-07-12', 'field2': '12:40', 'field3': 'TP', 'field4': '28.4', 'field5': 'RH', 'field6': '48.39', 'field7': 'CO2', 'field8': '860', 'field9': 'PPF', 'field10': '705.0', 'field11': 'PSP', 'field12': '0', 'field13': 'UV', 'field14': '0', 'field15': 'ST', 'field16': '0.00', 'field17': 'EC', 'field18': '0.00', 'field19': 'SM', 'field20': '0.00'}
{'device_id': '2136-01-01-03', 'field1': '2021-07-12', 'field2': '12:45', 'field3': 'TP', 'field4': '27.4', 'field5': 'RH', 'field6': '49.57', 'field7': 'CO2', 'field8': '887', 'field9': 'PPF', 'field10': '691.0', 'field11': 'PSP', 'field12': '0', 'field13': 'UV', 'field14': '0', 'field15': 'ST', 'field16': '0.00', 'field17': 'EC', 'field18': '0.00', 'field19': 'SM', 'field20': '0.00'}
{'device_id': '2136-01-01-03', 'field1': '2021-07-12', 'field2': '12:56', 'field3': 'TP', 'field4': '26.8', 'field5': 'RH', 'field6': '53.89', 'field7': 'CO2', 'field8': '947', 'field9': 'PPF', 'field10': '686.0', 'field11': 'PSP', 'field12': '0', 'field13': 'UV', 'field14': '0', 'field15': 'ST', 'field16': '0.00', 'field17': 'EC', 'field18': '0.00', 'field19': 'SM', 'field20': '0.00'}
{'device_id': '2136-01-01-03', 'field1': '2021-07-12', 'field2': '13:01', 'field3': 'TP', 'field4': '26.3', 'field5': 'RH', 'field6': '53.54', 'field7': 'CO2', 'field8': '986', 'field9': 'PPF', 'field10': '645.0', 'field11': 'PSP', 'field12': '0', 'field13': 'UV', 'field14': '0', 'field15': 'ST', 'field16': '0.00', 'field17': 'EC', 'field18': '0.00', 'field19': 'SM', 'field20': '0.00'}
{'device_id': '2136-01-01-03', 'field1': '2021-07-12', 'field2': '13:06', 'field3': 'TP', 'field4': '26.2', 'field5': 'RH', 'field6': '52.55', 'field7': 'CO2', 'field8': '985', 'field9': 'PPF', 'field10': '653.0', 'field11': 'PSP', 'field12': '0', 'field13': 'UV', 'field14': '0', 'field15': 'ST', 'field16': '0.00', 'field17': 'EC', 'field18': '0.00', 'field19': 'SM', 'field20': '0.00'}
{'device_id': '2136-01-01-03', 'field1': '2021-07-12', 'field2': '13:11', 'field3': 'TP', 'field4': '26.1', 'field5': 'RH', 'field6': '51.91', 'field7': 'CO2', 'field8': '1003', 'field9': 'PPF', 'field10': '622.0', 'field11': 'PSP', 'field12': '0', 'field13': 'UV', 'field14': '0', 'field15': 'ST', 'field16': '0.00', 'field17': 'EC', 'field18': '0.00', 'field19': 'SM', 'field20': '0.00'}
{'device_id': '2136-01-01-03', 'field1': '2021-07-12', 'field2': '13:17', 'field3': 'TP', 'field4': '25.9', 'field5': 'RH', 'field6': '52.07', 'field7': 'CO2', 'field8': '926', 'field9': 'PPF', 'field10': '650.0', 'field11': 'PSP', 'field12': '0', 'field13': 'UV', 'field14': '0', 'field15': 'ST', 'field16': '0.00', 'field17': 'EC', 'field18': '0.00', 'field19': 'SM', 'field20': '0.00'}
{'device_id': '2136-01-01-03', 'field1': '2021-07-12', 'field2': '13:22', 'field3': 'TP', 'field4': '26.3', 'field5': 'RH', 'field6': '53.99', 'field7': 'CO2', 'field8': '956', 'field9': 'PPF', 'field10': '692.0', 'field11': 'PSP', 'field12': '0', 'field13': 'UV', 'field14': '0', 'field15': 'ST', 'field16': '0.00', 'field17': 'EC', 'field18': '0.00', 'field19': 'SM', 'field20': '0.00'}
{'device_id': '2136-01-01-03', 'field1': '2021-07-12', 'field2': '13:27', 'field3': 'TP', 'field4': '26.1', 'field5': 'RH', 'field6': '53.92', 'field7': 'CO2', 'field8': '939', 'field9': 'PPF', 'field10': '745.0', 'field11': 'PSP', 'field12': '0', 'field13': 'UV', 'field14': '0', 'field15': 'ST', 'field16': '0.00', 'field17': 'EC', 'field18': '0.00', 'field19': 'SM', 'field20': '0.00'}
{'device_id': '2136-01-01-03', 'field1': '2021-07-12', 'field2': '13:32', 'field3': 'TP', 'field4': '25.9', 'field5': 'RH', 'field6': '53.19', 'field7': 'CO2', 'field8': '930', 'field9': 'PPF', 'field10': '716.0', 'field11': 'PSP', 'field12': '0', 'field13': 'UV', 'field14': '0', 'field15': 'ST', 'field16': '0.00', 'field17': 'EC', 'field18': '0.00', 'field19': 'SM', 'field20': '0.00'}
{'device_id': '2136-01-01-03', 'field1': '2021-07-12', 'field2': '13:38', 'field3': 'TP', 'field4': '26.1', 'field5': 'RH', 'field6': '51.88', 'field7': 'CO2', 'field8': '936', 'field9': 'PPF', 'field10': '673.0', 'field11': 'PSP', 'field12': '0', 'field13': 'UV', 'field14': '0', 'field15': 'ST', 'field16': '0.00', 'field17': 'EC', 'field18': '0.00', 'field19': 'SM', 'field20': '0.00'}
{'device_id': '2136-01-01-03', 'field1': '2021-07-12', 'field2': '13:43', 'field3': 'TP', 'field4': '26.7', 'field5': 'RH', 'field6': '52.29', 'field7': 'CO2', 'field8': '958', 'field9': 'PPF', 'field10': '665.0', 'field11': 'PSP', 'field12': '0', 'field13': 'UV', 'field14': '0', 'field15': 'ST', 'field16': '0.00', 'field17': 'EC', 'field18': '0.00', 'field19': 'SM', 'field20': '0.00'}
{'device_id': '2136-01-01-03', 'field1': '2021-07-12', 'field2': '13:48', 'field3': 'TP', 'field4': '26.9', 'field5': 'RH', 'field6': '52.91', 'field7': 'CO2', 'field8': '990', 'field9': 'PPF', 'field10': '675.0', 'field11': 'PSP', 'field12': '0', 'field13': 'UV', 'field14': '0', 'field15': 'ST', 'field16': '0.00', 'field17': 'EC', 'field18': '0.00', 'field19': 'SM', 'field20': '0.00'}
{'device_id': '2136-01-01-03', 'field1': '2021-07-12', 'field2': '13:53', 'field3': 'TP', 'field4': '26.5', 'field5': 'RH', 'field6': '52.42', 'field7': 'CO2', 'field8': '978', 'field9': 'PPF', 'field10': '716.0', 'field11': 'PSP', 'field12': '0', 'field13': 'UV', 'field14': '0', 'field15': 'ST', 'field16': '0.00', 'field17': 'EC', 'field18': '0.00', 'field19': 'SM', 'field20': '0.00'}
{'device_id': '2136-01-01-03', 'field1': '2021-07-12', 'field2': '13:58', 'field3': 'TP', 'field4': '27.1', 'field5': 'RH', 'field6': '49.73', 'field7': 'CO2', 'field8': '983', 'field9': 'PPF', 'field10': '734.0', 'field11': 'PSP', 'field12': '0', 'field13': 'UV', 'field14': '0', 'field15': 'ST', 'field16': '0.00', 'field17': 'EC', 'field18': '0.00', 'field19': 'SM', 'field20': '0.00'}
{'device_id': '2136-01-01-03', 'field1': '2021-07-12', 'field2': '14:04', 'field3': 'TP', 'field4': '26.7', 'field5': 'RH', 'field6': '50.36', 'field7': 'CO2', 'field8': '1038', 'field9': 'PPF', 'field10': '706.0', 'field11': 'PSP', 'field12': '0', 'field13': 'UV', 'field14': '0', 'field15': 'ST', 'field16': '0.00', 'field17': 'EC', 'field18': '0.00', 'field19': 'SM', 'field20': '0.00'}
{'device_id': '2136-01-01-03', 'field1': '2021-07-12', 'field2': '14:09', 'field3': 'TP', 'field4': '26.7', 'field5': 'RH', 'field6': '49.95', 'field7': 'CO2', 'field8': '1061', 'field9': 'PPF', 'field10': '744.0', 'field11': 'PSP', 'field12': '0', 'field13': 'UV', 'field14': '0', 'field15': 'ST', 'field16': '0.00', 'field17': 'EC', 'field18': '0.00', 'field19': 'SM', 'field20': '0.00'}
{'device_id': '2136-01-01-03', 'field1': '2021-07-12', 'field2': '14:14', 'field3': 'TP', 'field4': '26.6', 'field5': 'RH', 'field6': '49.83', 'field7': 'CO2', 'field8': '1048', 'field9': 'PPF', 'field10': '732.0', 'field11': 'PSP', 'field12': '0', 'field13': 'UV', 'field14': '0', 'field15': 'ST', 'field16': '0.00', 'field17': 'EC', 'field18': '0.00', 'field19': 'SM', 'field20': '0.00'}
{'device_id': '2136-01-01-03', 'field1': '2021-07-12', 'field2': '14:19', 'field3': 'TP', 'field4': '27.0', 'field5': 'RH', 'field6': '51.36', 'field7': 'CO2', 'field8': '1057', 'field9': 'PPF', 'field10': '752.0', 'field11': 'PSP', 'field12': '0', 'field13': 'UV', 'field14': '0', 'field15': 'ST', 'field16': '0.00', 'field17': 'EC', 'field18': '0.00', 'field19': 'SM', 'field20': '0.00'}
{'device_id': '2136-01-01-03', 'field1': '2021-07-12', 'field2': '14:25', 'field3': 'TP', 'field4': '27.1', 'field5': 'RH', 'field6': '52.13', 'field7': 'CO2', 'field8': '1073', 'field9': 'PPF', 'field10': '621.0', 'field11': 'PSP', 'field12': '0', 'field13': 'UV', 'field14': '0', 'field15': 'ST', 'field16': '0.00', 'field17': 'EC', 'field18': '0.00', 'field19': 'SM', 'field20': '0.00'}
{'device_id': '2136-01-01-03', 'field1': '2021-07-12', 'field2': '14:30', 'field3': 'TP', 'field4': '27.2', 'field5': 'RH', 'field6': '50.06', 'field7': 'CO2', 'field8': '1060', 'field9': 'PPF', 'field10': '710.0', 'field11': 'PSP', 'field12': '0', 'field13': 'UV', 'field14': '0', 'field15': 'ST', 'field16': '0.00', 'field17': 'EC', 'field18': '0.00', 'field19': 'SM', 'field20': '0.00'}
{'device_id': '2136-01-01-03', 'field1': '2021-07-12', 'field2': '14:35', 'field3': 'TP', 'field4': '27.4', 'field5': 'RH', 'field6': '49.14', 'field7': 'CO2', 'field8': '1050', 'field9': 'PPF', 'field10': '708.0', 'field11': 'PSP', 'field12': '0', 'field13': 'UV', 'field14': '0', 'field15': 'ST', 'field16': '0.00', 'field17': 'EC', 'field18': '0.00', 'field19': 'SM', 'field20': '0.00'}
{'device_id': '2136-01-01-03', 'field1': '2021-07-12', 'field2': '14:40', 'field3': 'TP', 'field4': '27.8', 'field5': 'RH', 'field6': '50.98', 'field7': 'CO2', 'field8': '1052', 'field9': 'PPF', 'field10': '655.0', 'field11': 'PSP', 'field12': '0', 'field13': 'UV', 'field14': '0', 'field15': 'ST', 'field16': '0.00', 'field17': 'EC', 'field18': '0.00', 'field19': 'SM', 'field20': '0.00'}
{'device_id': '2136-01-01-03', 'field1': '2021-07-12', 'field2': '14:46', 'field3': 'TP', 'field4': '27.7', 'field5': 'RH', 'field6': '49.72', 'field7': 'CO2', 'field8': '1057', 'field9': 'PPF', 'field10': '623.0', 'field11': 'PSP', 'field12': '0', 'field13': 'UV', 'field14': '0', 'field15': 'ST', 'field16': '0.00', 'field17': 'EC', 'field18': '0.00', 'field19': 'SM', 'field20': '0.00'}
{'device_id': '2136-01-01-03', 'field1': '2021-07-12', 'field2': '14:51', 'field3': 'TP', 'field4': '27.6', 'field5': 'RH', 'field6': '48.77', 'field7': 'CO2', 'field8': '1059', 'field9': 'PPF', 'field10': '612.0', 'field11': 'PSP', 'field12': '0', 'field13': 'UV', 'field14': '0', 'field15': 'ST', 'field16': '0.00', 'field17': 'EC', 'field18': '0.00', 'field19': 'SM', 'field20': '0.00'}
{'device_id': '2136-01-01-03', 'field1': '20165-25-45', 'field2': '45:85', 'field3': 'TP', 'field4': '0.0', 'field5': 'RH', 'field6': '0.0', 'field7': 'CO2', 'field8': '0.0', 'field9': 'PPF', 'field10': '0.0', 'field11': 'PSP', 'field12': '0', 'field13': 'UV', 'field14': '0', 'field15': 'ST', 'field16': '32.71', 'field17': 'EC', 'field18': '0.74', 'field19': 'SM', 'field20': '22.49'}
{'device_id': '2136-01-01-03', 'field1': '20165-25-45', 'field2': '45:85', 'field3': 'TP', 'field4': '3', 'field5': 'RH', 'field6': '3', 'field7': 'CO2', 'field8': '3', 'field9': 'PPF', 'field10': '0.0', 'field11': 'PSP', 'field12': '0', 'field13': 'UV', 'field14': '0', 'field15': 'ST', 'field16': '32.71', 'field17': 'EC', 'field18': '0.74', 'field19': 'SM', 'field20': '22.49'}
{'device_id': '2136-01-01-03', 'field1': '2021-08-01', 'field2': '09:00', 'field3': 'TP', 'field4': '3', 'field5': 'RH', 'field6': '3', 'field7': 'CO2', 'field8': '3', 'field9': 'PPF', 'field10': '0.0', 'field11': 'PSP', 'field12': '0', 'field13': 'UV', 'field14': '0', 'field15': 'ST', 'field16': '32.71', 'field17': 'EC', 'field18': '0.74', 'field19': 'SM', 'field20': '22.49'}
